&imgNum=6&
&imgURL=img/&
&img1=image1.jpg&
&img2=image2.jpg&
&img3=image3.jpg&
&img4=image4.jpg&
&img5=image5.jpg&
&img6=image6.jpg&
&connURL1=http://www.g.cn&
&connURL2=http://www.g.cn&
&connURL3=http://www.g.cn&
&connURL4=http://www.g.cn&
&connURL5=http://www.g.cn&
&connURL6=http://www.g.cn&
&connGET1=""&
&connGET2=""&
&connGET3=""&
&connGET4=""&
&connGET5=""&
&connGET6=""&
